<svg xmlns="http://www.w3.org/2000/svg" xmlns:xlink="http://www.w3.org/1999/xlink" width="244.998" height="244.998" viewBox="0 0 244.998 244.998">
  <defs>
    <linearGradient id="linear-gradient" x1="0.5" x2="0.943" y2="1.457" gradientUnits="objectBoundingBox">
      <stop offset="0" stop-color="#4fc592"/>
      <stop offset="1" stop-color="#389e71"/>
    </linearGradient>
  </defs>
  <path id="Subtraction_1" data-name="Subtraction 1" d="M136.892,259.052h-1a122.9,122.9,0,0,1-24.587-2.479,121.333,121.333,0,0,1-43.624-18.357,122.355,122.355,0,0,1-44.2-53.676,121.382,121.382,0,0,1-7.109-22.9,122.9,122.9,0,0,1-2.479-24.587v-1a122.9,122.9,0,0,1,2.479-24.587A121.335,121.335,0,0,1,34.73,67.843a122.356,122.356,0,0,1,53.676-44.2,121.383,121.383,0,0,1,22.9-7.109,122.9,122.9,0,0,1,24.587-2.479h1a122.9,122.9,0,0,1,24.587,2.479A121.331,121.331,0,0,1,205.1,34.889a122.356,122.356,0,0,1,44.2,53.677,121.384,121.384,0,0,1,7.109,22.9,122.9,122.9,0,0,1,2.479,24.587v1a123.028,123.028,0,0,1-2.213,23.252,121.241,121.241,0,0,1-16.465,41.653,122.776,122.776,0,0,1-13.428,17.577L177.6,165.956l.147-.139c.021-.466.047-.937.073-1.393a25.729,25.729,0,0,0-.158-6.471,6.675,6.675,0,0,0-3.343-4.774l-1.27-8.636-.567-3.859,2.21-2.269.032-.033,2.47-2.536a16.144,16.144,0,0,0,4.366.84,5.36,5.36,0,0,0,4.678-2.6c.679-2.384-.005-4.508-2.154-6.686-13.848-14.035-30.164-30.6-46.173-47.066-1.646-1.692-3.278-2.551-4.85-2.551a4.658,4.658,0,0,0-1.814.379,5.416,5.416,0,0,0-2.525,3.282,9.933,9.933,0,0,0-.019,3.491,12.144,12.144,0,0,1,.12,2.245q-17.2,16.926-34.021,33.491L82.12,133.162c-.424-.073-.8-.143-1.16-.21-.69-.128-1.283-.238-1.876-.308A9.233,9.233,0,0,0,78,132.576a5.054,5.054,0,0,0-3.724,1.386,5.5,5.5,0,0,0-1.017,1.444,4.371,4.371,0,0,0-.348,3.382,7.27,7.27,0,0,0,1.9,2.857c.518.524,1.036,1.063,1.536,1.584.444.462.9.94,1.362,1.407,3.06,3.118,6.165,6.277,9.167,9.332l.022.022c5.6,5.694,11.381,11.582,17.061,17.383,2.39,2.44,4.807,4.933,7.144,7.344l.008.008,0,0c3.042,3.137,6.187,6.381,9.307,9.546,2.172,2.2,3.57,3.062,4.986,3.062,1.442,0,3-.9,5.55-3.208l-.116-.766c-.244-1.611-.508-3.352-.782-5.174,1.666-1.534,3.329-3.068,4.76-4.388l.459-.423L147.3,179.6a7.643,7.643,0,0,0,3.46,2.951,11.21,11.21,0,0,0,4.483.8,26.389,26.389,0,0,0,3.862-.327l51.514,51.237a121.452,121.452,0,0,1-73.732,24.793ZM61.849,139.721a8.956,8.956,0,0,0-6.232,2.509l-5.955,5.72-.131.129a9,9,0,0,0-.123,12.593l53.883,56.085a9,9,0,0,0,12.721.255l5.954-5.72a9.008,9.008,0,0,0,.255-12.722L68.339,142.484A8.923,8.923,0,0,0,61.849,139.721ZM150.58,50.74a8.954,8.954,0,0,0-6.232,2.509l-5.955,5.721,0,0,0,0-.123.121a9,9,0,0,0-.123,12.591l53.884,56.085a9,9,0,0,0,12.721.255l5.955-5.721a9,9,0,0,0,.255-12.721L157.069,53.5A8.921,8.921,0,0,0,150.58,50.74Z" transform="translate(-13.894 -14.054)" fill="url(#linear-gradient)"/>
</svg>
