<svg xmlns="http://www.w3.org/2000/svg" width="15" height="15" viewBox="0 0 15 15">
  <g id="Group_1" data-name="Group 1" transform="translate(1 1)">
    <line id="Line_1" data-name="Line 1" x2="13" transform="translate(0 6.611)" fill="none" stroke="#fff" stroke-linecap="round" stroke-width="2"/>
    <line id="Line_2" data-name="Line 2" y1="13" transform="translate(6.611)" fill="none" stroke="#fff" stroke-linecap="round" stroke-width="2"/>
  </g>
</svg>
