<svg xmlns="http://www.w3.org/2000/svg" width="19.86" height="12.067" viewBox="0 0 19.86 12.067">
  <g id="list_1_" data-name="list (1)" transform="translate(625 -1179.862)">
    <circle id="Ellipse_26" data-name="Ellipse 26" cx="1.007" cy="1.007" r="1.007" transform="translate(-625 1179.862)" fill="#3d4046"/>
    <path id="Path_2727" data-name="Path 2727" d="M-622.494,1181.362h14.065" transform="translate(2.539 -0.493)" fill="none" stroke="#3d4046" stroke-linecap="round" stroke-linejoin="round" stroke-width="1.5"/>
    <circle id="Ellipse_27" data-name="Ellipse 27" cx="1.007" cy="1.007" r="1.007" transform="translate(-625 1184.889)" fill="#3d4046"/>
    <path id="Path_2728" data-name="Path 2728" d="M-622.494,1183.362h14.065" transform="translate(2.539 2.533)" fill="none" stroke="#3d4046" stroke-linecap="round" stroke-linejoin="round" stroke-width="1.5"/>
    <circle id="Ellipse_28" data-name="Ellipse 28" cx="1.007" cy="1.007" r="1.007" transform="translate(-625 1189.915)" fill="#3d4046"/>
    <path id="Path_2729" data-name="Path 2729" d="M-622.494,1185.362h14.065" transform="translate(2.539 5.56)" fill="none" stroke="#3d4046" stroke-linecap="round" stroke-linejoin="round" stroke-width="1.5"/>
  </g>
</svg>
