<svg xmlns="http://www.w3.org/2000/svg" width="14.682" height="16.125" viewBox="0 0 14.682 16.125">
  <g id="log" transform="translate(0.85 0.85)">
    <path id="Path_2679" data-name="Path 2679" d="M7.049,14.425H1.442A1.442,1.442,0,0,1,0,12.982V1.442A1.442,1.442,0,0,1,1.442,0H7.049M10.1,10.1l2.885-2.885L10.1,4.327m2.885,2.885H4.327" fill="none" stroke="#323044" stroke-linecap="round" stroke-linejoin="round" stroke-width="1.7" fill-rule="evenodd"/>
  </g>
</svg>
